^A:\PROJECTS\HOMEWORK14\HOMEWORK14\HOMEWORK14.CPP
A:\PROJECTS\HOMEWORK14\HOMEWORK14\DEBUG\VC142.PDB
A:\PROJECTS\HOMEWORK14\HOMEWORK14\DEBUG\VC142.IDB
A:\PROJECTS\HOMEWORK14\HOMEWORK14\DEBUG\HOMEWORK14.OBJ
